^C:\USERS\OBART\SOURCE\REPOS\ADS ASS3 MAX HEAP - Q2\DEBUG\MAIN.OBJ|C:\USERS\OBART\SOURCE\REPOS\ADS ASS3 MAX HEAP - Q2\DEBUG\MAXHEAP.OBJ|C:\USERS\OBART\SOURCE\REPOS\ADS ASS3 MAX HEAP - Q2\DEBUG\NUMBERNODE.OBJ
/OUT:"C:\USERS\OBART\SOURCE\REPOS\ADS ASS3 MAX HEAP - Q2\DEBUG\ADS ASS3 MAX HEAP - Q2.EXE" /INCREMENTAL /NOLOGO KERNEL32.LIB USER32.LIB GDI32.LIB WINSPOOL.LIB COMDLG32.LIB ADVAPI32.LIB SHELL32.LIB OLE32.LIB OLEAUT32.LIB UUID.LIB ODBC32.LIB ODBCCP32.LIB /MANIFEST /MANIFESTUAC:"level='asInvoker' uiAccess='false'" /manifest:embed /DEBUG:FASTLINK /PDB:"C:\USERS\OBART\SOURCE\REPOS\ADS ASS3 MAX HEAP - Q2\DEBUG\ADS ASS3 MAX HEAP - Q2.PDB" /SUBSYSTEM:CONSOLE /TLBID:1 /DYNAMICBASE /NXCOMPAT /IMPLIB:"C:\USERS\OBART\SOURCE\REPOS\ADS ASS3 MAX HEAP - Q2\DEBUG\ADS ASS3 MAX HEAP - Q2.LIB" /MACHINE:X86 DEBUG\MAIN.OBJ
DEBUG\MAXHEAP.OBJ
DEBUG\NUMBERNODE.OBJ
